<?xml version="1.0" encoding="ISO-8859-1"?>
<class id="Mobius.ProjectManager.ProjectInfo">
	<int id="ClassVersion">8</int>
	<string id="TheProjectName">PortScanIDS</string>
	<string id="LastSavedByMobius">2.4</string>
	<vector id="AtomicNames">
		<string id="0">Generator</string>
		<string id="1">Detector</string>
	</vector>
	<vector id="AtomicFormalismTypes">
		<string id="0">SAN Model</string>
		<string id="1">SAN Model</string>
	</vector>
	<int id="AtomicStatusLength">2</int>
	<class id="Mobius.ProjectManager.ModelStatus">
		<int id="ClassVersion">2</int>
		<boolean id="Modified">false</boolean>
		<string id="VersionNumber">25</string>
	</class>
	<class id="Mobius.ProjectManager.ModelStatus">
		<int id="ClassVersion">2</int>
		<boolean id="Modified">false</boolean>
		<string id="VersionNumber">22</string>
	</class>
	<vector id="ComposedNames">
		<string id="0">IDS</string>
	</vector>
	<vector id="ComposedFormalismTypes">
		<string id="0">Rep/Join</string>
	</vector>
	<int id="ComposedChildrenLength">1</int>
	<vector id="ComposedChildVector">
		<string id="0">Detector</string>
		<string id="1">Generator</string>
	</vector>
	<int id="ComposedStatusLength">1</int>
	<class id="Mobius.ProjectManager.ModelStatus">
		<int id="ClassVersion">2</int>
		<boolean id="Modified">false</boolean>
		<string id="VersionNumber">6</string>
	</class>
	<vector id="RewardNames">
		<string id="0">IdsReward</string>
		<string id="1">IdsReward2</string>
		<string id="2">IdsReward3</string>
	</vector>
	<vector id="RewardFormalismTypes">
		<string id="0">Performance Variable Model</string>
		<string id="1">Performance Variable Model</string>
		<string id="2">Performance Variable Model</string>
	</vector>
	<int id="RewardChildrenLength">3</int>
	<vector id="RewardChildVector">
		<string id="0">IDS</string>
	</vector>
	<vector id="RewardChildVector">
		<string id="0">IDS</string>
	</vector>
	<vector id="RewardChildVector">
		<string id="0">IDS</string>
	</vector>
	<int id="RewardStatusLength">3</int>
	<class id="Mobius.ProjectManager.ModelStatus">
		<int id="ClassVersion">2</int>
		<boolean id="Modified">true</boolean>
		<string id="VersionNumber">2</string>
	</class>
	<class id="Mobius.ProjectManager.ModelStatus">
		<int id="ClassVersion">2</int>
		<boolean id="Modified">false</boolean>
		<string id="VersionNumber">6</string>
	</class>
	<class id="Mobius.ProjectManager.ModelStatus">
		<int id="ClassVersion">2</int>
		<boolean id="Modified">false</boolean>
		<string id="VersionNumber">17</string>
	</class>
	<vector id="StudyNames">
		<string id="0">IdsStudy</string>
		<string id="1">IdsStudy2</string>
		<string id="2">IdsStudy3</string>
	</vector>
	<vector id="StudyFormalismTypes">
		<string id="0">Range Study</string>
		<string id="1">Range Study</string>
		<string id="2">Range Study</string>
	</vector>
	<int id="StudyChildrenLength">3</int>
	<vector id="StudyChildVector">
		<string id="0">IdsReward2</string>
	</vector>
	<vector id="StudyChildVector">
		<string id="0">IdsReward2</string>
	</vector>
	<vector id="StudyChildVector">
		<string id="0">IdsReward3</string>
	</vector>
	<int id="StudyStatusLength">3</int>
	<class id="Mobius.ProjectManager.ModelStatus">
		<int id="ClassVersion">2</int>
		<boolean id="Modified">true</boolean>
		<string id="VersionNumber">2</string>
	</class>
	<class id="Mobius.ProjectManager.ModelStatus">
		<int id="ClassVersion">2</int>
		<boolean id="Modified">false</boolean>
		<string id="VersionNumber">2</string>
	</class>
	<class id="Mobius.ProjectManager.ModelStatus">
		<int id="ClassVersion">2</int>
		<boolean id="Modified">false</boolean>
		<string id="VersionNumber">2</string>
	</class>
	<vector id="TransformerNames">
		<string id="0">IdsSSG</string>
		<string id="1">IdsSSG2</string>
	</vector>
	<vector id="TransformerFormalismTypes">
		<string id="0">State Space Generator</string>
		<string id="1">State Space Generator</string>
	</vector>
	<int id="TransformerChildrenLength">2</int>
	<vector id="TransformerChildVector">
		<string id="0">IdsStudy3</string>
	</vector>
	<vector id="TransformerChildVector">
		<string id="0">IdsStudy3</string>
	</vector>
	<int id="TransformerStatusLength">2</int>
	<class id="Mobius.ProjectManager.ModelStatus">
		<int id="ClassVersion">2</int>
		<boolean id="Modified">true</boolean>
		<string id="VersionNumber">1</string>
	</class>
	<class id="Mobius.ProjectManager.ModelStatus">
		<int id="ClassVersion">2</int>
		<boolean id="Modified">true</boolean>
		<string id="VersionNumber">1</string>
	</class>
	<vector id="SolverNames">
		<string id="0">IdsARS</string>
	</vector>
	<vector id="SolverFormalismTypes">
		<string id="0">Accumulated Reward Solver</string>
	</vector>
	<int id="SolverChildrenLength">1</int>
	<vector id="SolverChildVector">
		<string id="0">IdsSSG2</string>
	</vector>
	<int id="SolverStatusLength">1</int>
	<class id="Mobius.ProjectManager.ModelStatus">
		<int id="ClassVersion">2</int>
		<boolean id="Modified">true</boolean>
		<string id="VersionNumber">1</string>
	</class>
	<string id="UserDefinedLibrary"></string>
	<string id="UserDefinedHeader"></string>
	<class id="Mobius.AtomicModels.San.SanTypeManager">
		<int id="ClassVersion">1</int>
		<int id="typeListModelSize">2</int>
		<class id="Mobius.AtomicModels.San.SanArrayTypedefinition">
			<int id="ClassVersion">2</int>
			<class id="Mobius.BaseClasses.BaseTypedefinitionClass">
				<int id="ClassVersion">1</int>
				<string id="name">Src_Hist</string>
				<string id="typeGroup">array</string>
			</class>
			<string id="FieldCountStr">3</string>
			<boolean id="CommonInitialValue">true</boolean>
			<string id="baseType">short</string>
		</class>
		<class id="Mobius.AtomicModels.San.SanArrayTypedefinition">
			<int id="ClassVersion">2</int>
			<class id="Mobius.BaseClasses.BaseTypedefinitionClass">
				<int id="ClassVersion">1</int>
				<string id="name">Dst_Hist</string>
				<string id="typeGroup">array</string>
			</class>
			<string id="FieldCountStr">6</string>
			<boolean id="CommonInitialValue">true</boolean>
			<string id="baseType">short</string>
		</class>
	</class>
</class>
