
**********************************************************

State Generation initiated on Experiment_1 of IdsSSG2 started at Fri Nov 08 16:12:19 CST 2013 ...
path=[/home/ryan/Documents/idsmodeling/src/mobiusSource/Net2_PIDS/Transformer/IdsSSG2//]
License File=/usr/share/mobius-2.4//License.mli
The Global Variable values for experiment Experiment 1 are:
d1	double	0.33
d2	double	0.33
d3	double	0.33
s1	double	0.2
s2	double	0.2
s3	double	0.2
s4	double	0.2
s5	double	0.1
s6	double	0.1
SSG: SetTraceLevel: 0

Generated: 1969 states
Computation Time (user + system): 2.560000e-01 seconds
