<?xml version="1.0" encoding="UTF-8"?>

<!DOCTYPE svg PUBLIC '-//W3C//DTD SVG 1.0//EN' 'http://www.w3.org/TR/2001/REC-SVG-20010904/DTD/svg10.dtd'>
<svg style="fill-opacity:1; color-rendering:auto; color-interpolation:auto; stroke:black; text-rendering:auto; stroke-linecap:square; stroke-miterlimit:10; stroke-opacity:1; shape-rendering:auto; fill:black; stroke-dasharray:none; font-weight:normal; stroke-width:1; font-family:&apos;Dialog&apos;; font-style:normal; stroke-linejoin:miter; font-size:12; stroke-dashoffset:0; image-rendering:auto;" xmlns="http://www.w3.org/2000/svg" width="326.0" xmlns:xlink="http://www.w3.org/1999/xlink" height="149.0">
  <!--Generated by the Batik Graphics2D SVG Generator-->
  <defs id="genericDefs" />
  <g>
    <g style="fill:white; stroke:white;">
      <rect x="0" y="0" width="510" style="stroke:none;" height="400" />
    </g>
    <g style="font-family:sans-serif; font-size:14;">
      <text xml:space="preserve" x="110" y="147" style="stroke:none;">Generator</text>
      <text xml:space="preserve" x="245" y="147" style="stroke:none;">Detector</text>
      <line x1="205" x2="145" y1="85" style="fill:none;" y2="125" />
      <line x1="205" x2="275" y1="85" style="fill:none;" y2="125" />
      <rect x="155" y="76" width="101" style="fill:blue; stroke:none;" rx="4" ry="4" height="19" />
      <text x="193" y="90" style="fill:white; stroke:none;" xml:space="preserve">Join</text>
      <rect x="95" y="116" width="101" style="fill:rgb(64,64,64); stroke:none;" rx="4" ry="4" height="19" />
      <text x="110" y="130" style="fill:white; stroke:none;" xml:space="preserve">Submodel</text>
      <rect x="225" y="116" width="101" style="fill:rgb(64,64,64); stroke:none;" rx="4" ry="4" height="19" />
      <text x="240" y="130" style="fill:white; stroke:none;" xml:space="preserve">Submodel</text>
    </g>
  </g>
</svg>
